Define active infected cell growth curve — define_growth_curve • wavess
…
carry_cap
carrying capacity for number of infected cells (default: 2000)

max_growth_rate
maximum infected cell population growth rate
(default: 0.3)

    Value

    tibble with two columns: day and active cell count

    Examples

define_growth_curve()
#> # A tibble: 5,001 × 2
#>    generation active_cell_count
#>         <dbl>             <dbl>
#>  1          0                10
#>  2          1                13
#>  3          2                17
#>  4          3                22
#>  5          4                29
#>  6          5                37
#>  7          6                48
#>  8          7                62
#>  9          8                80
#> 10          9               103
#> # ℹ 4,991 more rows
…
