Prepare input data • wavess
…
generation: Each generation to be simulated (must be
consecutive whole numbers starting with 0)

active_cell_count: Number of active infected cells in
each generation

You can create this data frame yourself, but we also provide a helper
function to generate it: define_growth_curve().

All of the arguments in this function have defaults, so you can
run:

define_growth_curve()
#> # A tibble: 5,001 × 2
#>    generation active_cell_count
#>         <dbl>             <dbl>
#>  1          0                10
#>  2          1                13
#>  3          2                17
#>  4          3                22
#>  5          4                29
#>  6          5                37
#>  7          6                48
#>  8          7                62
#>  9          8                80
#> 10          9               103
#> # ℹ 4,991 more rows

This will generate an infected cell population size following a
logistic growth curve. By default, the starting population size
(n0) is 10, the carrying capacity (carry_cap)
is 2000, the maximum growth rate (max_growth_rate) is 0.3,
and the simulation is run for a maximum 5000 generations
(n_gen). All of these defaults can be changed by altering
the input parameters of the function.

Here is an example where we allow the simulation to run for longer
(for as long as sequences are being sampled):

(inf_pop_size <- define_growth_curve(n_gen = 10000))
#> # A tibble: 10,001 × 2
#>    generation active_cell_count
#>         <dbl>             <dbl>
#>  1          0                10
#>  2          1                13
#>  3          2                17
#>  4          3                22
#>  5          4                29
#>  6          5                37
#>  7          6                48
#>  8          7                62
#>  9          8                80
#> 10          9               103
#> # ℹ 9,991 more rows
…
# get hxb2 gp120 length and end position in flt alignment
len_hxb2_gp120 <- nchar(extract_seqs(hxb2_cons_founder,
  "B.FR.83.HXB2_LAI_IIIB_BRU.K03455",
  start = gp120_start, end = gp120_end
)$founder)
flt_gp120_end <- which(cumsum(as.character(hiv_env_flt_2022[1, ]) != "-") ==
  len_hxb2_gp120)[1]
# subset to only gp120 section
hiv_gp120_flt_2022 <- slice_aln(hiv_env_flt_2022, 1, flt_gp120_end)

Then we can use this sliced alignment to identify conserved
sites:

identify_conserved_sites(hiv_gp120_flt_2022, "B.FR.83.HXB2_LAI_IIIB_BRU.K03455")
#> # A tibble: 1,533 × 5
#>    founder_pos founder_base consensus_base consensus_prop conserved
#>          <dbl> <chr>        <chr>                   <dbl> <chr>    
#>  1           0 a            a                         1   Yes      
#>  2           1 t            t                         1   Yes      
#>  3           2 g            g                         1   Yes      
#>  4           3 a            a                         1   Yes      
#>  5           4 g            g                         1   Yes      
#>  6           5 a            a                         1   Yes      
#>  7           6 g            g                         1   Yes      
#>  8           7 t            t                         0.8 No       
#>  9           8 g            g                         1   Yes      
#> 10           9 a            a                         1   Yes      
#> # ℹ 1,523 more rows

Alternatively, if you have two alignments with a shared reference,
one from which you’d like to calculate conserved sites, and the other
that contains the founder, you can provide both alignments, as well as
the common reference, and the function will return the conserved sites
relative to the founder sequence. In this case, the shared reference
sequence is assumed to have the same start position in each
alignment.

(founder_conserved_df <- identify_conserved_sites(hiv_gp120_flt_2022,
  founder = "B.US.2011.DEMB11US006.KC473833",
  ref = "B.FR.83.HXB2_LAI_IIIB_BRU.K03455",
  founder_aln = gp120
))
#> # A tibble: 1,503 × 5
#>    founder_pos founder_base consensus_base consensus_prop conserved
#>          <dbl> <chr>        <chr>                   <dbl> <chr>    
#>  1           0 a            a                         1   Yes      
#>  2           1 t            t                         1   Yes      
#>  3           2 g            g                         1   Yes      
#>  4           3 a            a                         1   Yes      
#>  5           4 g            g                         1   Yes      
#>  6           5 a            a                         1   Yes      
#>  7           6 g            g                         1   Yes      
#>  8           7 c            t                         0.8 No       
#>  9           8 g            g                         1   Yes      
#> 10           9 a            a                         1   Yes      
#> # ℹ 1,493 more rows
…
If possible, we recommend determining epitope probabilities based on
some sort of known antibody contact/binding/neutralization maps. For HIV
ENV gp120, we used the features from the LANL HIV immunology
database:

env_features
#> # A tibble: 3,022 × 13
#>       ID Title                   Reference `Feature type` `Mab(s)(Binding type)`
#>    <dbl> <chr>                   <chr>     <chr>          <chr>                 
#>  1     4 PGT121 epitope defined… Mouquet2… binding        PGT121(V3)            
#>  2     4 PGT121 epitope defined… Mouquet2… binding        PGT121(V3)            
#>  3     4 PGT121 epitope defined… Mouquet2… binding        PGT121(V3)            
#>  4     4 PGT121 epitope defined… Mouquet2… binding        PGT121(V3)            
#>  5     4 PGT121 epitope defined… Mouquet2… binding        PGT121(V3)            
#>  6     4 PGT121 epitope defined… Mouquet2… binding        PGT121(V3)            
#>  7     4 PGT121 epitope defined… Mouquet2… binding        PGT121(V3)            
#>  8     4 PGT121 epitope defined… Mouquet2… binding        PGT121(V3)            
#>  9     4 PGT121 epitope defined… Mouquet2… binding        PGT121(V3)            
#> 10     4 PGT121 epitope defined… Mouquet2… binding        PGT121(V3)            
#> # ℹ 3,012 more rows
#> # ℹ 8 more variables: `Experimental method(s)` <chr>, Position <dbl>,
#> #   `Env feature(s)` <chr>, `HXB2 AA` <chr>, `Entropy M` <dbl>,
#> #   `Entropy B` <dbl>, `Entropy C` <dbl>, Annotation <chr>
…
We can put the positions into the
get_epitope_frequencies() function, which returns a tibble
with three columns:

aa_pos: amino acid position

n_features: the number of features at that
position

epitope_probability: the probability of an epitope at
that position, given the input positions

(epi_probs <- get_epitope_frequencies(env_features$Position))
#> # A tibble: 480 × 3
#>    aa_position n_features epitope_probability
#>          <dbl>      <dbl>               <dbl>
#>  1          31          1            0.000331
#>  2          32          0            0       
#>  3          33          0            0       
#>  4          34          0            0       
#>  5          35          0            0       
#>  6          36          0            0       
#>  7          37          0            0       
#>  8          38          0            0       
#>  9          39          0            0       
#> 10          40          0            0       
#> # ℹ 470 more rows
…
(ref_founder_map <- map_ref_founder(gp120,
  ref = "B.FR.83.HXB2_LAI_IIIB_BRU.K03455",
  founder = "B.US.2011.DEMB11US006.KC473833"
))
#> # A tibble: 1,563 × 5
#>    alignment_pos ref_pos founder_pos ref_base founder_base
#>            <dbl>   <dbl>       <dbl> <chr>    <chr>       
#>  1             0       0           0 a        a           
#>  2             1       1           1 t        t           
#>  3             2       2           2 g        g           
#>  4             3       3           3 a        a           
#>  5             4       4           4 g        g           
#>  6             5       5           5 a        a           
#>  7             6       6           6 g        g           
#>  8             7       7           7 t        c           
#>  9             8       8           8 g        g           
#> 10             9       9           9 a        a           
#> # ℹ 1,553 more rows
…
