Simulate within-host evolution with `wavess` • wavess
…
immune: virus immune fitness

conserved: virus conserved fitness

replicative: virus replicative fitness (compared to a
reference)

overall: overall fitness (the other three multiplied
together)

required_args_only$fitness
#> # A tibble: 80 × 6
#>    generation seq_id   immune conserved replicative overall
#>    <chr>      <chr>     <dbl>     <dbl>       <dbl>   <dbl>
#>  1 founder    founder0      1         1           1       1
#>  2 founder    founder1      1         1           1       1
#>  3 founder    founder2      1         1           1       1
#>  4 founder    founder3      1         1           1       1
#>  5 founder    founder4      1         1           1       1
#>  6 founder    founder5      1         1           1       1
#>  7 founder    founder6      1         1           1       1
#>  8 founder    founder7      1         1           1       1
#>  9 founder    founder8      1         1           1       1
#> 10 founder    founder9      1         1           1       1
#> # ℹ 70 more rows
…
